IP地址,端口,TLS,数据中心,地区,城市,网络延迟
45.66.131.29,44900,true,NRT,Asia Pacific,Tokyo,52 ms
23.158.24.10,48449,true,NRT,Asia Pacific,Tokyo,64 ms
121.85.41.153,21998,true,KIX,Asia Pacific,Osaka,69 ms
45.145.240.96,47856,true,NRT,Asia Pacific,Tokyo,72 ms
218.42.212.5,29299,true,KIX,Asia Pacific,Osaka,81 ms
115.38.127.54,30047,true,NRT,Asia Pacific,Tokyo,86 ms
115.38.127.54,24970,true,NRT,Asia Pacific,Tokyo,87 ms
115.38.127.54,22405,true,NRT,Asia Pacific,Tokyo,89 ms
115.38.127.54,35113,true,NRT,Asia Pacific,Tokyo,89 ms
140.238.60.71,2083,true,NRT,Asia Pacific,Tokyo,110 ms
140.238.60.71,2053,true,NRT,Asia Pacific,Tokyo,111 ms
140.238.60.71,2087,true,NRT,Asia Pacific,Tokyo,111 ms
131.186.56.159,443,true,NRT,Asia Pacific,Tokyo,111 ms
141.147.163.234,443,true,NRT,Asia Pacific,Tokyo,111 ms
141.147.173.34,443,true,NRT,Asia Pacific,Tokyo,112 ms
155.248.166.214,2096,true,NRT,Asia Pacific,Tokyo,112 ms
155.248.175.233,443,true,NRT,Asia Pacific,Tokyo,112 ms
140.238.60.71,8443,true,NRT,Asia Pacific,Tokyo,112 ms
141.147.173.34,2053,true,NRT,Asia Pacific,Tokyo,112 ms
155.248.175.233,2053,true,NRT,Asia Pacific,Tokyo,112 ms
141.147.163.234,2083,true,NRT,Asia Pacific,Tokyo,112 ms
141.147.163.234,2096,true,NRT,Asia Pacific,Tokyo,113 ms
141.147.163.234,8443,true,NRT,Asia Pacific,Tokyo,113 ms
141.147.163.234,2087,true,NRT,Asia Pacific,Tokyo,113 ms
155.248.166.214,8443,true,NRT,Asia Pacific,Tokyo,113 ms
155.248.175.233,2087,true,NRT,Asia Pacific,Tokyo,113 ms
141.147.173.34,8443,true,NRT,Asia Pacific,Tokyo,113 ms
155.248.175.233,2083,true,NRT,Asia Pacific,Tokyo,114 ms
155.248.166.214,2087,true,NRT,Asia Pacific,Tokyo,116 ms
155.248.187.41,2083,true,NRT,Asia Pacific,Tokyo,116 ms
131.186.34.120,2083,true,NRT,Asia Pacific,Tokyo,117 ms
131.186.34.120,8443,true,NRT,Asia Pacific,Tokyo,117 ms
141.147.179.76,443,true,NRT,Asia Pacific,Tokyo,117 ms
131.186.56.159,2053,true,NRT,Asia Pacific,Tokyo,117 ms
131.186.56.159,2083,true,NRT,Asia Pacific,Tokyo,118 ms
155.248.187.41,2053,true,NRT,Asia Pacific,Tokyo,118 ms
141.147.161.249,51037,true,NRT,Asia Pacific,Tokyo,118 ms
152.69.203.48,443,true,KIX,Asia Pacific,Osaka,160 ms
152.69.203.48,2096,true,KIX,Asia Pacific,Osaka,165 ms
141.147.146.21,8443,true,KIX,Asia Pacific,Osaka,167 ms
152.69.203.48,2083,true,KIX,Asia Pacific,Osaka,167 ms
152.69.203.48,8443,true,KIX,Asia Pacific,Osaka,168 ms
150.230.63.129,2053,true,KIX,Asia Pacific,Osaka,168 ms
141.147.146.21,2053,true,KIX,Asia Pacific,Osaka,168 ms
140.83.54.38,443,true,KIX,Asia Pacific,Osaka,168 ms
152.69.203.48,2087,true,KIX,Asia Pacific,Osaka,169 ms
152.69.203.48,2053,true,KIX,Asia Pacific,Osaka,170 ms
150.230.63.129,2096,true,KIX,Asia Pacific,Osaka,171 ms
141.147.146.21,2083,true,KIX,Asia Pacific,Osaka,172 ms
150.230.63.129,443,true,KIX,Asia Pacific,Osaka,173 ms
168.138.43.25,18596,true,KIX,Asia Pacific,Osaka,173 ms
140.83.62.76,2087,true,KIX,Asia Pacific,Osaka,174 ms
140.83.62.76,443,true,KIX,Asia Pacific,Osaka,174 ms
140.83.62.76,2096,true,KIX,Asia Pacific,Osaka,175 ms
141.147.151.187,2096,true,KIX,Asia Pacific,Osaka,175 ms
150.230.63.129,8443,true,KIX,Asia Pacific,Osaka,175 ms
150.230.63.129,2087,true,KIX,Asia Pacific,Osaka,175 ms
141.147.146.21,2087,true,KIX,Asia Pacific,Osaka,175 ms
141.147.151.187,443,true,KIX,Asia Pacific,Osaka,175 ms
141.147.151.187,2087,true,KIX,Asia Pacific,Osaka,175 ms
141.147.151.187,2053,true,KIX,Asia Pacific,Osaka,176 ms
140.83.62.76,2083,true,KIX,Asia Pacific,Osaka,176 ms
141.147.151.187,2083,true,KIX,Asia Pacific,Osaka,176 ms
141.147.146.21,2096,true,KIX,Asia Pacific,Osaka,176 ms
150.230.63.129,2083,true,KIX,Asia Pacific,Osaka,177 ms
140.83.62.76,8443,true,KIX,Asia Pacific,Osaka,177 ms
141.147.151.187,8443,true,KIX,Asia Pacific,Osaka,178 ms
141.147.146.21,443,true,KIX,Asia Pacific,Osaka,178 ms
140.83.62.76,2053,true,KIX,Asia Pacific,Osaka,178 ms
