IP地址,端口,TLS,数据中心,地区,城市,网络延迟
43.155.89.93,55527,true,HKG,Asia Pacific,Hong Kong,152 ms
43.154.202.186,23333,true,HKG,Asia Pacific,Hong Kong,153 ms
43.154.35.225,8443,true,HKG,Asia Pacific,Hong Kong,153 ms
43.128.6.137,10001,true,HKG,Asia Pacific,Hong Kong,159 ms
101.32.177.17,55527,true,HKG,Asia Pacific,Hong Kong,165 ms
101.32.41.135,36308,true,HKG,Asia Pacific,Hong Kong,180 ms
43.154.43.101,55111,true,HKG,Asia Pacific,Hong Kong,181 ms
43.155.172.117,24377,true,ICN,Asia Pacific,Seoul,201 ms
43.156.6.97,10392,true,SIN,Asia Pacific,Singapore,355 ms
43.156.105.78,26574,true,SIN,Asia Pacific,Singapore,363 ms
