IP地址,端口,TLS,数据中心,地区,城市,网络延迟
35.229.219.190,9876,true,TPE,Asia Pacific,Taipei,21 ms
118.163.101.44,44332,true,TPE,Asia Pacific,Taipei,31 ms
35.201.203.106,443,true,TPE,Asia Pacific,Taipei,33 ms
123.50.37.113,8443,true,TPE,Asia Pacific,Taipei,40 ms
118.163.128.81,25593,true,KHH,Asia Pacific,Kaohsiung City,42 ms
123.50.37.113,9000,true,HKG,Asia Pacific,Hong Kong,45 ms
140.120.32.79,23908,true,TPE,Asia Pacific,Taipei,50 ms
140.120.32.79,17548,true,TPE,Asia Pacific,Taipei,52 ms
60.248.139.106,21785,true,KHH,Asia Pacific,Kaohsiung City,56 ms
35.189.162.159,29977,true,TPE,Asia Pacific,Taipei,58 ms
220.141.26.109,20547,true,TPE,Asia Pacific,Taipei,64 ms
118.166.27.5,31241,true,TPE,Asia Pacific,Taipei,71 ms
114.33.85.64,23211,true,KHH,Asia Pacific,Kaohsiung City,75 ms
125.228.8.157,25199,true,KHH,Asia Pacific,Kaohsiung City,77 ms
125.228.8.157,11541,true,KHH,Asia Pacific,Kaohsiung City,78 ms
114.37.105.129,17129,true,TPE,Asia Pacific,Taipei,78 ms
125.228.8.157,32135,true,KHH,Asia Pacific,Kaohsiung City,81 ms
1.168.57.14,22739,true,KHH,Asia Pacific,Kaohsiung City,83 ms
111.255.103.90,27514,true,TPE,Asia Pacific,Taipei,85 ms
111.255.103.90,37525,true,TPE,Asia Pacific,Taipei,85 ms
59.127.85.166,20652,true,KHH,Asia Pacific,Kaohsiung City,89 ms
125.228.72.208,15099,true,KHH,Asia Pacific,Kaohsiung City,90 ms
1.175.44.162,26703,true,KHH,Asia Pacific,Kaohsiung City,90 ms
116.241.192.223,10812,true,TPE,Asia Pacific,Taipei,193 ms
114.39.156.126,12732,true,SJC,North America,San Jose,201 ms
59.115.158.26,27273,true,SJC,North America,San Jose,202 ms
210.203.103.101,13859,true,TPE,Asia Pacific,Taipei,208 ms
111.251.195.12,11211,true,SJC,North America,San Jose,211 ms
218.161.46.78,37607,true,SJC,North America,San Jose,212 ms
36.238.178.253,22645,true,SJC,North America,San Jose,213 ms
106.107.238.226,11291,true,TPE,Asia Pacific,Taipei,218 ms
61.230.75.54,30022,true,SJC,North America,San Jose,220 ms
117.56.213.206,29454,true,SJC,North America,San Jose,236 ms
106.107.136.70,18955,true,TPE,Asia Pacific,Taipei,241 ms
106.107.136.70,12872,true,TPE,Asia Pacific,Taipei,241 ms
150.117.110.36,24988,true,KHH,Asia Pacific,Kaohsiung City,242 ms
60.244.226.204,32141,true,TPE,Asia Pacific,Taipei,257 ms
123.205.228.61,15369,true,TPE,Asia Pacific,Taipei,274 ms
112.104.73.171,11933,true,TPE,Asia Pacific,Taipei,277 ms
112.104.97.64,19529,true,TPE,Asia Pacific,Taipei,283 ms
112.105.219.202,12328,true,TPE,Asia Pacific,Taipei,285 ms
141.11.87.78,111,true,TPE,Asia Pacific,Taipei,315 ms
210.209.209.52,16356,true,TPE,Asia Pacific,Taipei,324 ms
111.67.55.209,39479,true,TPE,Asia Pacific,Taipei,378 ms
111.67.55.209,30168,true,TPE,Asia Pacific,Taipei,383 ms
111.67.55.209,18068,true,TPE,Asia Pacific,Taipei,389 ms
112.105.43.26,11239,true,TPE,Asia Pacific,Taipei,422 ms
