IP地址,端口,TLS,数据中心,地区,城市,网络延迟
160.79.105.194,2052,false,SJC,North America,San Jose,189 ms
107.150.37.141,32088,false,MCI,North America,Kansas City,196 ms
160.79.105.172,2082,false,SJC,North America,San Jose,205 ms
192.31.196.136,80,false,SJC,North America,San Jose,206 ms
104.251.179.26,2086,false,SJC,North America,San Jose,217 ms
104.251.179.26,2095,false,SJC,North America,San Jose,221 ms
104.251.179.26,2052,false,SJC,North America,San Jose,222 ms
104.251.179.26,8880,false,SJC,North America,San Jose,222 ms
174.139.202.158,80,false,LAX,North America,Los Angeles,229 ms
63.141.128.48,8080,false,SJC,North America,San Jose,230 ms
63.141.128.48,8880,false,SJC,North America,San Jose,231 ms
160.79.104.99,2086,false,SJC,North America,San Jose,231 ms
198.62.62.192,2082,false,SJC,North America,San Jose,232 ms
63.141.128.48,2086,false,SJC,North America,San Jose,234 ms
63.141.128.48,2052,false,SJC,North America,San Jose,234 ms
63.141.128.48,2082,false,SJC,North America,San Jose,235 ms
104.251.177.249,2082,false,SJC,North America,San Jose,235 ms
104.251.177.249,80,false,SJC,North America,San Jose,235 ms
198.62.62.31,8080,false,SJC,North America,San Jose,236 ms
160.79.105.172,80,false,SJC,North America,San Jose,239 ms
74.115.51.15,8880,false,SJC,North America,San Jose,239 ms
74.115.51.25,8880,false,SJC,North America,San Jose,240 ms
198.62.62.31,2095,false,SJC,North America,San Jose,240 ms
198.62.62.192,2095,false,SJC,North America,San Jose,241 ms
104.251.176.65,8080,false,SJC,North America,San Jose,241 ms
104.251.176.65,2082,false,SJC,North America,San Jose,241 ms
74.115.51.15,2095,false,SJC,North America,San Jose,242 ms
160.79.105.172,2095,false,SJC,North America,San Jose,242 ms
74.115.51.15,2082,false,SJC,North America,San Jose,243 ms
160.79.105.222,80,false,SJC,North America,San Jose,244 ms
74.115.51.15,2052,false,SJC,North America,San Jose,244 ms
63.141.128.130,2095,false,SJC,North America,San Jose,245 ms
63.141.128.130,8880,false,SJC,North America,San Jose,246 ms
104.251.178.213,2086,false,SJC,North America,San Jose,246 ms
160.79.105.172,8080,false,SJC,North America,San Jose,246 ms
192.200.160.175,80,false,SJC,North America,San Jose,247 ms
104.251.177.249,2095,false,SJC,North America,San Jose,247 ms
63.141.128.130,8080,false,SJC,North America,San Jose,248 ms
192.31.196.136,2082,false,SJC,North America,San Jose,251 ms
74.115.51.15,80,false,SJC,North America,San Jose,252 ms
160.79.105.172,2086,false,SJC,North America,San Jose,254 ms
198.62.62.179,8880,false,SJC,North America,San Jose,254 ms
198.62.62.179,2052,false,SJC,North America,San Jose,255 ms
198.62.62.192,2086,false,SJC,North America,San Jose,257 ms
198.62.62.192,8880,false,SJC,North America,San Jose,257 ms
63.141.128.130,80,false,SJC,North America,San Jose,258 ms
74.115.51.15,8080,false,SJC,North America,San Jose,258 ms
198.62.62.192,2052,false,SJC,North America,San Jose,259 ms
160.79.105.222,2086,false,SJC,North America,San Jose,260 ms
160.79.105.172,2052,false,SJC,North America,San Jose,260 ms
192.31.196.136,8880,false,SJC,North America,San Jose,260 ms
69.84.182.150,80,false,SJC,North America,San Jose,260 ms
74.115.51.15,2086,false,SJC,North America,San Jose,260 ms
192.31.196.136,8080,false,SJC,North America,San Jose,261 ms
63.141.128.48,80,false,SJC,North America,San Jose,261 ms
192.31.196.136,2086,false,SJC,North America,San Jose,261 ms
160.79.105.110,2095,false,SJC,North America,San Jose,261 ms
160.79.104.107,2052,false,SJC,North America,San Jose,262 ms
160.79.105.222,2082,false,SJC,North America,San Jose,262 ms
160.79.105.222,2095,false,SJC,North America,San Jose,262 ms
160.79.104.99,8880,false,SJC,North America,San Jose,262 ms
63.141.128.130,2086,false,SJC,North America,San Jose,263 ms
160.79.105.110,2082,false,SJC,North America,San Jose,263 ms
69.84.182.150,8880,false,SJC,North America,San Jose,264 ms
160.79.105.110,2052,false,SJC,North America,San Jose,264 ms
192.31.196.136,2052,false,SJC,North America,San Jose,264 ms
198.62.62.192,80,false,SJC,North America,San Jose,265 ms
198.62.62.192,8080,false,SJC,North America,San Jose,265 ms
160.79.105.222,2052,false,SJC,North America,San Jose,266 ms
160.79.105.222,8880,false,SJC,North America,San Jose,266 ms
160.79.105.222,8080,false,SJC,North America,San Jose,267 ms
104.251.177.171,8880,false,SJC,North America,San Jose,268 ms
104.251.178.18,2095,false,SJC,North America,San Jose,268 ms
160.79.104.210,8880,false,SJC,North America,San Jose,268 ms
160.79.105.110,8880,false,SJC,North America,San Jose,269 ms
160.79.104.99,80,false,SJC,North America,San Jose,269 ms
160.79.104.107,8080,false,SJC,North America,San Jose,271 ms
160.79.104.99,2082,false,SJC,North America,San Jose,271 ms
160.79.104.210,8080,false,SJC,North America,San Jose,273 ms
160.79.105.110,2086,false,SJC,North America,San Jose,273 ms
160.79.104.210,2086,false,SJC,North America,San Jose,275 ms
192.31.196.152,8080,false,SJC,North America,San Jose,275 ms
160.79.104.107,2095,false,SJC,North America,San Jose,275 ms
160.79.105.110,8080,false,SJC,North America,San Jose,275 ms
160.79.104.107,2086,false,SJC,North America,San Jose,275 ms
160.79.104.99,8080,false,SJC,North America,San Jose,275 ms
104.251.176.96,8080,false,SJC,North America,San Jose,276 ms
192.200.160.182,8080,false,SJC,North America,San Jose,276 ms
198.62.62.153,8880,false,SJC,North America,San Jose,277 ms
104.251.176.96,8880,false,SJC,North America,San Jose,277 ms
104.251.179.26,80,false,SJC,North America,San Jose,277 ms
104.251.176.96,2095,false,SJC,North America,San Jose,278 ms
160.79.105.194,80,false,SJC,North America,San Jose,278 ms
192.31.196.112,2086,false,SJC,North America,San Jose,280 ms
160.79.104.107,80,false,SJC,North America,San Jose,281 ms
192.31.196.152,2095,false,SJC,North America,San Jose,281 ms
160.79.105.30,8080,false,SJC,North America,San Jose,282 ms
192.31.196.7,2086,false,SJC,North America,San Jose,282 ms
160.79.104.17,8080,false,SJC,North America,San Jose,282 ms
192.31.196.7,2052,false,SJC,North America,San Jose,282 ms
104.251.177.171,2082,false,SJC,North America,San Jose,282 ms
104.251.177.171,2095,false,SJC,North America,San Jose,282 ms
192.31.196.152,2086,false,SJC,North America,San Jose,282 ms
104.251.177.171,2052,false,SJC,North America,San Jose,283 ms
104.251.179.26,8080,false,SJC,North America,San Jose,283 ms
160.79.104.17,2086,false,SJC,North America,San Jose,284 ms
160.79.104.0,80,false,SJC,North America,San Jose,284 ms
192.31.196.7,8880,false,SJC,North America,San Jose,285 ms
104.251.176.159,8880,false,SJC,North America,San Jose,285 ms
160.79.105.30,8880,false,SJC,North America,San Jose,285 ms
192.31.196.7,2095,false,SJC,North America,San Jose,285 ms
104.251.176.65,2052,false,SJC,North America,San Jose,286 ms
198.62.62.153,2086,false,SJC,North America,San Jose,286 ms
63.141.128.8,8880,false,SJC,North America,San Jose,286 ms
104.251.179.26,2082,false,SJC,North America,San Jose,286 ms
104.251.176.96,2086,false,SJC,North America,San Jose,287 ms
104.251.176.96,2082,false,SJC,North America,San Jose,287 ms
160.79.105.110,80,false,SJC,North America,San Jose,287 ms
104.251.179.86,2082,false,SJC,North America,San Jose,287 ms
192.31.196.152,2052,false,SJC,North America,San Jose,287 ms
104.251.177.171,2086,false,SJC,North America,San Jose,287 ms
104.251.176.96,80,false,SJC,North America,San Jose,288 ms
74.115.51.96,2052,false,SJC,North America,San Jose,289 ms
74.115.51.170,8080,false,SJC,North America,San Jose,290 ms
160.79.105.194,8080,false,SJC,North America,San Jose,290 ms
104.251.177.249,2052,false,SJC,North America,San Jose,291 ms
192.31.196.112,8080,false,SJC,North America,San Jose,291 ms
63.141.128.8,2095,false,SJC,North America,San Jose,291 ms
74.115.51.96,2082,false,SJC,North America,San Jose,291 ms
63.141.128.99,2095,false,SJC,North America,San Jose,292 ms
160.79.105.30,2086,false,SJC,North America,San Jose,293 ms
104.251.179.86,2086,false,SJC,North America,San Jose,293 ms
63.141.128.8,80,false,SJC,North America,San Jose,293 ms
192.31.196.7,2082,false,SJC,North America,San Jose,293 ms
198.62.62.31,8880,false,SJC,North America,San Jose,293 ms
63.141.128.99,2082,false,SJC,North America,San Jose,293 ms
160.79.104.0,2052,false,SJC,North America,San Jose,293 ms
104.251.177.171,80,false,SJC,North America,San Jose,294 ms
104.251.176.159,2086,false,SJC,North America,San Jose,294 ms
192.200.160.175,2082,false,SJC,North America,San Jose,294 ms
104.251.178.18,2052,false,SJC,North America,San Jose,294 ms
69.84.182.45,8080,false,SJC,North America,San Jose,294 ms
104.251.178.18,80,false,SJC,North America,San Jose,294 ms
192.31.196.112,80,false,SJC,North America,San Jose,295 ms
160.79.105.30,2082,false,SJC,North America,San Jose,295 ms
63.141.128.8,8080,false,SJC,North America,San Jose,295 ms
160.79.105.30,2095,false,SJC,North America,San Jose,295 ms
74.115.51.96,80,false,SJC,North America,San Jose,295 ms
104.251.178.18,2086,false,SJC,North America,San Jose,296 ms
104.251.179.86,2095,false,SJC,North America,San Jose,296 ms
192.31.196.112,2095,false,SJC,North America,San Jose,296 ms
63.141.128.8,2082,false,SJC,North America,San Jose,296 ms
160.79.104.0,2082,false,SJC,North America,San Jose,296 ms
192.200.160.223,2095,false,SJC,North America,San Jose,296 ms
74.115.51.96,2086,false,SJC,North America,San Jose,296 ms
69.84.182.45,2095,false,SJC,North America,San Jose,297 ms
160.79.104.0,2086,false,SJC,North America,San Jose,297 ms
192.31.196.112,8880,false,SJC,North America,San Jose,297 ms
104.251.176.159,2082,false,SJC,North America,San Jose,297 ms
192.200.160.182,8880,false,SJC,North America,San Jose,297 ms
192.200.160.182,2086,false,SJC,North America,San Jose,298 ms
198.62.62.31,2082,false,SJC,North America,San Jose,298 ms
198.62.62.31,2052,false,SJC,North America,San Jose,298 ms
160.79.105.30,80,false,SJC,North America,San Jose,299 ms
74.115.51.96,8080,false,SJC,North America,San Jose,299 ms
69.84.182.45,80,false,SJC,North America,San Jose,299 ms
198.62.62.179,2086,false,SJC,North America,San Jose,299 ms
192.31.196.176,2095,false,SJC,North America,San Jose,299 ms
63.141.128.8,2052,false,SJC,North America,San Jose,299 ms
192.31.196.7,80,false,SJC,North America,San Jose,299 ms
192.200.160.223,8080,false,SJC,North America,San Jose,299 ms
104.251.176.65,2095,false,SJC,North America,San Jose,300 ms
192.31.196.112,2082,false,SJC,North America,San Jose,300 ms
198.62.62.120,80,false,SJC,North America,San Jose,300 ms
74.115.51.96,8880,false,SJC,North America,San Jose,300 ms
198.62.62.120,2052,false,SJC,North America,San Jose,300 ms
160.79.104.242,80,false,SJC,North America,San Jose,301 ms
192.31.196.7,8080,false,SJC,North America,San Jose,301 ms
160.79.104.0,2095,false,SJC,North America,San Jose,301 ms
74.115.51.96,2095,false,SJC,North America,San Jose,301 ms
198.62.62.120,2082,false,SJC,North America,San Jose,302 ms
160.79.104.242,2086,false,SJC,North America,San Jose,302 ms
192.200.160.223,8880,false,SJC,North America,San Jose,302 ms
192.31.196.169,2095,false,SJC,North America,San Jose,302 ms
160.79.105.194,2086,false,SJC,North America,San Jose,303 ms
192.31.196.152,8880,false,SJC,North America,San Jose,303 ms
160.79.104.17,2082,false,SJC,North America,San Jose,303 ms
192.200.160.0,2052,false,SJC,North America,San Jose,303 ms
69.84.182.229,2095,false,SJC,North America,San Jose,303 ms
192.200.160.0,8080,false,SJC,North America,San Jose,303 ms
192.200.160.182,2082,false,SJC,North America,San Jose,303 ms
104.251.178.221,2095,false,SJC,North America,San Jose,304 ms
198.62.62.120,2086,false,SJC,North America,San Jose,304 ms
192.200.160.223,80,false,SJC,North America,San Jose,304 ms
192.200.160.223,2086,false,SJC,North America,San Jose,304 ms
160.79.105.194,2082,false,SJC,North America,San Jose,304 ms
192.200.160.223,2052,false,SJC,North America,San Jose,304 ms
104.251.178.221,8080,false,SJC,North America,San Jose,304 ms
192.31.196.176,8080,false,SJC,North America,San Jose,304 ms
63.141.128.99,2052,false,SJC,North America,San Jose,305 ms
69.84.182.229,8080,false,SJC,North America,San Jose,305 ms
104.251.177.249,8080,false,SJC,North America,San Jose,305 ms
69.84.182.32,2095,false,SJC,North America,San Jose,305 ms
192.200.160.223,2082,false,SJC,North America,San Jose,305 ms
160.79.104.242,2052,false,SJC,North America,San Jose,305 ms
69.84.182.229,2082,false,SJC,North America,San Jose,305 ms
198.62.62.202,2052,false,SJC,North America,San Jose,306 ms
198.62.62.120,8080,false,SJC,North America,San Jose,306 ms
69.84.182.32,2086,false,SJC,North America,San Jose,306 ms
104.251.178.221,8880,false,SJC,North America,San Jose,306 ms
192.200.160.175,2095,false,SJC,North America,San Jose,306 ms
192.200.160.182,2052,false,SJC,North America,San Jose,306 ms
192.31.196.176,80,false,SJC,North America,San Jose,306 ms
160.79.104.210,2052,false,SJC,North America,San Jose,307 ms
104.251.178.213,2095,false,SJC,North America,San Jose,307 ms
198.62.62.120,8880,false,SJC,North America,San Jose,307 ms
104.251.176.65,80,false,SJC,North America,San Jose,307 ms
192.200.160.0,80,false,SJC,North America,San Jose,307 ms
74.115.51.170,8880,false,SJC,North America,San Jose,307 ms
104.251.178.213,2052,false,SJC,North America,San Jose,308 ms
160.79.104.17,80,false,SJC,North America,San Jose,308 ms
198.62.62.179,2095,false,SJC,North America,San Jose,308 ms
160.79.104.17,2095,false,SJC,North America,San Jose,308 ms
74.115.51.170,2082,false,SJC,North America,San Jose,308 ms
104.251.176.65,8880,false,SJC,North America,San Jose,308 ms
69.84.182.32,8080,false,SJC,North America,San Jose,308 ms
104.251.178.213,80,false,SJC,North America,San Jose,308 ms
192.31.196.152,80,false,SJC,North America,San Jose,309 ms
69.84.182.229,80,false,SJC,North America,San Jose,309 ms
198.62.62.31,80,false,SJC,North America,San Jose,309 ms
192.31.196.169,8080,false,SJC,North America,San Jose,309 ms
69.84.182.45,8880,false,SJC,North America,San Jose,309 ms
198.62.62.153,80,false,SJC,North America,San Jose,309 ms
69.84.182.45,2086,false,SJC,North America,San Jose,309 ms
104.251.177.249,2086,false,SJC,North America,San Jose,309 ms
198.62.62.179,2082,false,SJC,North America,San Jose,309 ms
192.31.196.176,8880,false,SJC,North America,San Jose,309 ms
198.62.62.120,2095,false,SJC,North America,San Jose,310 ms
74.115.51.170,80,false,SJC,North America,San Jose,310 ms
69.84.182.32,2082,false,SJC,North America,San Jose,310 ms
69.84.182.32,80,false,SJC,North America,San Jose,310 ms
160.79.105.194,2095,false,SJC,North America,San Jose,311 ms
63.141.128.99,8880,false,SJC,North America,San Jose,311 ms
160.79.105.194,8880,false,SJC,North America,San Jose,311 ms
160.79.104.210,2095,false,SJC,North America,San Jose,311 ms
198.62.62.179,80,false,SJC,North America,San Jose,312 ms
74.115.51.170,2052,false,SJC,North America,San Jose,312 ms
192.31.196.152,2082,false,SJC,North America,San Jose,312 ms
198.62.62.202,8880,false,SJC,North America,San Jose,312 ms
192.31.196.169,2052,false,SJC,North America,San Jose,312 ms
74.115.51.25,80,false,SJC,North America,San Jose,312 ms
192.31.196.169,2086,false,SJC,North America,San Jose,312 ms
198.62.62.31,2086,false,SJC,North America,San Jose,312 ms
154.16.94.157,8880,false,SJC,North America,San Jose,312 ms
160.79.104.17,2052,false,SJC,North America,San Jose,313 ms
69.84.182.32,8880,false,SJC,North America,San Jose,313 ms
198.62.62.202,80,false,SJC,North America,San Jose,313 ms
69.84.182.45,2052,false,SJC,North America,San Jose,314 ms
192.200.160.175,2086,false,SJC,North America,San Jose,314 ms
74.115.51.170,2086,false,SJC,North America,San Jose,314 ms
198.62.62.202,2095,false,SJC,North America,San Jose,314 ms
160.79.104.0,8080,false,SJC,North America,San Jose,314 ms
198.62.62.153,8080,false,SJC,North America,San Jose,315 ms
192.200.160.175,8880,false,SJC,North America,San Jose,315 ms
198.62.62.202,2082,false,SJC,North America,San Jose,315 ms
104.251.176.5,2082,false,SJC,North America,San Jose,315 ms
104.251.176.159,2095,false,SJC,North America,San Jose,315 ms
104.251.177.221,2052,false,SJC,North America,San Jose,316 ms
104.251.178.221,2052,false,SJC,North America,San Jose,316 ms
104.251.176.159,8080,false,SJC,North America,San Jose,316 ms
104.251.176.5,2086,false,SJC,North America,San Jose,316 ms
192.31.196.169,80,false,SJC,North America,San Jose,316 ms
198.62.62.202,2086,false,SJC,North America,San Jose,317 ms
192.31.196.169,2082,false,SJC,North America,San Jose,317 ms
74.115.51.25,2095,false,SJC,North America,San Jose,317 ms
104.251.178.221,2086,false,SJC,North America,San Jose,317 ms
160.79.104.242,2082,false,SJC,North America,San Jose,318 ms
74.115.51.240,8880,false,SJC,North America,San Jose,319 ms
154.16.94.157,2082,false,SJC,North America,San Jose,319 ms
160.79.104.0,8880,false,SJC,North America,San Jose,320 ms
74.115.51.240,2095,false,SJC,North America,San Jose,321 ms
69.84.182.150,8080,false,SJC,North America,San Jose,321 ms
74.115.51.240,2082,false,SJC,North America,San Jose,321 ms
69.84.182.150,2052,false,SJC,North America,San Jose,321 ms
192.200.160.175,2052,false,SJC,North America,San Jose,321 ms
160.79.104.242,2095,false,SJC,North America,San Jose,322 ms
104.251.176.5,8880,false,SJC,North America,San Jose,322 ms
69.84.182.150,2095,false,SJC,North America,San Jose,322 ms
104.251.177.221,2082,false,SJC,North America,San Jose,323 ms
154.16.94.157,80,false,SJC,North America,San Jose,324 ms
154.16.94.128,2095,false,SJC,North America,San Jose,325 ms
74.115.51.240,8080,false,SJC,North America,San Jose,325 ms
104.251.176.159,2052,false,SJC,North America,San Jose,326 ms
154.16.94.128,80,false,SJC,North America,San Jose,326 ms
104.251.177.221,2086,false,SJC,North America,San Jose,327 ms
154.16.94.128,8080,false,SJC,North America,San Jose,327 ms
104.251.177.221,2095,false,SJC,North America,San Jose,328 ms
74.115.51.25,2082,false,SJC,North America,San Jose,329 ms
192.200.160.175,8080,false,SJC,North America,San Jose,329 ms
160.79.104.242,8080,false,SJC,North America,San Jose,329 ms
104.251.177.221,8880,false,SJC,North America,San Jose,330 ms
192.200.160.0,8880,false,SJC,North America,San Jose,331 ms
216.24.57.201,2082,false,SJC,North America,San Jose,331 ms
154.16.94.157,2095,false,SJC,North America,San Jose,331 ms
104.251.176.159,80,false,SJC,North America,San Jose,332 ms
154.16.94.157,2086,false,SJC,North America,San Jose,332 ms
74.115.51.25,2052,false,SJC,North America,San Jose,332 ms
192.200.160.109,8880,false,SJC,North America,San Jose,332 ms
216.24.57.201,2052,false,SJC,North America,San Jose,332 ms
130.250.137.203,2052,false,SJC,North America,San Jose,333 ms
192.200.160.0,2082,false,SJC,North America,San Jose,333 ms
104.251.177.221,8080,false,SJC,North America,San Jose,334 ms
74.115.51.25,8080,false,SJC,North America,San Jose,334 ms
74.115.51.25,2086,false,SJC,North America,San Jose,334 ms
154.16.94.128,2086,false,SJC,North America,San Jose,335 ms
216.24.57.209,2052,false,SJC,North America,San Jose,336 ms
192.200.160.0,2095,false,SJC,North America,San Jose,336 ms
216.24.57.209,2095,false,SJC,North America,San Jose,337 ms
216.24.57.209,8880,false,SJC,North America,San Jose,337 ms
192.200.160.0,2086,false,SJC,North America,San Jose,337 ms
198.62.62.40,8880,false,SJC,North America,San Jose,338 ms
154.16.94.128,8880,false,SJC,North America,San Jose,340 ms
104.251.176.5,2095,false,SJC,North America,San Jose,340 ms
154.16.94.157,8080,false,SJC,North America,San Jose,340 ms
192.200.160.109,8080,false,SJC,North America,San Jose,341 ms
130.250.137.1,8880,false,SJC,North America,San Jose,342 ms
192.200.160.109,2095,false,SJC,North America,San Jose,342 ms
130.250.137.1,8080,false,SJC,North America,San Jose,343 ms
130.250.137.203,2095,false,SJC,North America,San Jose,343 ms
130.250.137.1,2095,false,SJC,North America,San Jose,343 ms
104.251.176.5,8080,false,SJC,North America,San Jose,343 ms
216.24.57.201,80,false,SJC,North America,San Jose,344 ms
130.250.137.1,2082,false,SJC,North America,San Jose,344 ms
104.251.179.86,8080,false,SJC,North America,San Jose,344 ms
104.251.176.5,2052,false,SJC,North America,San Jose,344 ms
192.200.160.109,80,false,SJC,North America,San Jose,344 ms
192.200.160.109,2086,false,SJC,North America,San Jose,345 ms
216.24.57.201,8880,false,SJC,North America,San Jose,345 ms
198.62.62.40,2082,false,SJC,North America,San Jose,345 ms
192.200.160.109,2052,false,SJC,North America,San Jose,346 ms
216.24.57.201,2095,false,SJC,North America,San Jose,346 ms
74.115.51.248,80,false,SJC,North America,San Jose,346 ms
130.250.137.1,2052,false,SJC,North America,San Jose,347 ms
104.251.179.86,2052,false,SJC,North America,San Jose,347 ms
74.115.51.248,8080,false,SJC,North America,San Jose,347 ms
74.115.51.248,2082,false,SJC,North America,San Jose,347 ms
130.250.137.1,2086,false,SJC,North America,San Jose,348 ms
216.24.57.201,8080,false,SJC,North America,San Jose,348 ms
74.115.51.248,2052,false,SJC,North America,San Jose,348 ms
216.24.57.209,8080,false,SJC,North America,San Jose,349 ms
198.62.62.40,8080,false,SJC,North America,San Jose,349 ms
216.24.57.209,80,false,SJC,North America,San Jose,349 ms
74.115.51.240,2052,false,SJC,North America,San Jose,350 ms
198.62.62.40,2086,false,SJC,North America,San Jose,350 ms
74.115.51.248,8880,false,SJC,North America,San Jose,350 ms
160.79.104.242,8880,false,SJC,North America,San Jose,350 ms
216.24.57.209,2086,false,SJC,North America,San Jose,350 ms
198.62.62.40,2052,false,SJC,North America,San Jose,350 ms
74.115.51.240,2086,false,SJC,North America,San Jose,351 ms
74.115.51.248,2086,false,SJC,North America,San Jose,351 ms
154.16.94.157,2052,false,SJC,North America,San Jose,351 ms
104.251.176.5,80,false,SJC,North America,San Jose,352 ms
192.200.160.109,2082,false,SJC,North America,San Jose,353 ms
198.62.62.40,2095,false,SJC,North America,San Jose,355 ms
130.250.137.203,80,false,SJC,North America,San Jose,362 ms
130.250.137.203,2082,false,SJC,North America,San Jose,363 ms
130.250.137.203,2086,false,SJC,North America,San Jose,363 ms
130.250.137.203,8080,false,SJC,North America,San Jose,366 ms
130.250.137.203,8880,false,SJC,North America,San Jose,366 ms
